income:1
money:4
is_connected_to_network:4
loan-threshold-30:3
loan-threshold-20:2
upgrade-1:1
upgrade-2:0
upgrade-3:1
upgrade-4:1
upgrade-5:2
unflipped:1
sell_cotton:2
money_cotton:3
coal_demand:0
move_coal_from_network:4
move_coal_from_other:4
iron_demand:1
move_iron_from_network:2
move_iron_from_other:3
link-canal-1:0
link-canal-2:3
link-canal-3:4
link-canal-4:0
link-canal-5:1
link-canal-6:3
link-canal-7:3
link-canal-8:1
link-canal-9:1
link-canal-10:0
link-canal-11:1
link-canal-12:4
link-canal-13:2
link-canal-14:3
link-canal-15:2
link-canal-16:0
link-canal-17:0
link-canal-18:1
link-canal-19:3
link-canal-20:3
link-canal-21:2
link-canal-22:3
link-canal-23:1
link-rail-1:4
link-rail-2:1
link-rail-3:0
link-rail-4:3
link-rail-5:2
link-rail-6:2
link-rail-7:0
link-rail-8:4
link-rail-9:3
link-rail-10:3
link-rail-11:3
link-rail-12:3
link-rail-13:4
link-rail-14:1
link-rail-15:0
link-rail-16:2
link-rail-17:3
link-rail-18:0
link-rail-19:0
link-rail-20:3
link-rail-21:0
link-rail-22:3
link-rail-23:0
link-rail-24:3
link-rail-25:3
link-rail-26:1
link-rail-27:4
link-rail-28:4
link-rail-29:3
link-rail-30:3
link-rail-31:4
link-rail-32:1
link-rail-33:1
link-rail-34:3
link-rail-35:4
tech_id-1:4
tech_id-2:0
tech_id-3:1
tech_id-4:1
tech_id-5:0
tech_id-6:2
tech_id-7:3
tech_id-8:1
tech_id-9:0
tech_id-10:1
tech_id-11:0
tech_id-12:4
tech_id-13:3
tech_id-14:1
tech_id-15:2
tech_id-16:1
tech_id-17:2
tech_id-18:4
tech_id-19:1
tech_id-20:3
tech_id-21:4
tech_id-22:4
tech_id-23:2
tech_id-24:2
build-1:0
build-2:3
build-3:1
build-4:0
build-5:3
